…
Individual-level child penalties are estimated by `unitdid()`:

``` r
mdl_base <- base_heterocp |>
  unitdid(yname = "y",
        iname = "id",
        tname = "year",
        ename = "cyear",
        bname = "byear")

# Estimated individual-level child penalties (y_tilde)
get_unitdid(mdl_base)
#> # A tibble: 32,257 × 6
#>       id  year byear cyear      y    y_tilde
#>    <int> <int> <int> <int>  <dbl>      <dbl>
#>  1   705  2000  1957  2000 0.138  -0.0287   
#>  2   997  2000  1958  2000 0.138   0.0849   
#>  3   998  2000  1958  2000 0.119  -0.104    
#>  4  1013  2000  1958  2000 0.115  -0.0000709
#>  5  1082  2000  1958  2000 0.0362  0.00549  
#>  6  1127  2000  1958  2000 0.386   0.125    
#>  7  1225  2001  1959  2001 0.158  -0.118    
#>  8  1228  2000  1959  2000 0.241  -0.0937   
#>  9  1228  2001  1959  2000 0.443   0.0226   
#> 10  1230  2000  1959  2000 0.143  -0.0266   
#> # ℹ 32,247 more rows
```
…
